Iowa Gambling Task · ActionModels.jl
…
#Combine into one dataframe
ahn_data = vcat(data_healthy, data_heroin, data_amphetamine)
ahn_data[!, :subjID] = string.(ahn_data[!, :subjID])

#Make column with total reward
ahn_data[!, :reward] = Float64.(ahn_data[!, :gain] + ahn_data[!, :loss]);

show(ahn_data)

12883×7 DataFrame
   Row │ trial  deck   gain   loss   subjID  clinical_group  reward
       │ Int64  Int64  Int64  Int64  String  String          Float64
───────┼─────────────────────────────────────────────────────────────
     1 │     1      3     50      0  103     1_control          50.0
     2 │     2      3     60      0  103     1_control          60.0
     3 │     3      3     40    -50  103     1_control         -10.0
     4 │     4      4     50      0  103     1_control          50.0
     5 │     5      3     55      0  103     1_control          55.0
     6 │     6      1    100      0  103     1_control         100.0
     7 │     7      1    120      0  103     1_control         120.0
     8 │     8      2    100      0  103     1_control         100.0
   ⋮   │   ⋮      ⋮      ⋮      ⋮      ⋮           ⋮            ⋮
 12877 │    94      4     70      0  344     3_amphetamine      70.0
 12878 │    95      2    150      0  344     3_amphetamine     150.0
 12879 │    96      4     50      0  344     3_amphetamine      50.0
 12880 │    97      2    110      0  344     3_amphetamine     110.0
 12881 │    98      4     70   -275  344     3_amphetamine    -205.0
 12882 │    99      2    150      0  344     3_amphetamine     150.0
 12883 │   100      3     70    -25  344     3_amphetamine      45.0
                                                   12868 rows omitted
…
state_trajectories = get_state_trajectories!(model, :expected_value);

#TODO: plot the state trajectories
These can also be summarized in a dataframe, for downstream analysis.

states_df = summarize(state_trajectories, median)
show(states_df)

606×6 DataFrame
 Row │ subjID  timestep  expected_value[1]  expected_value[2]  expected_value[ ⋯
     │ String  Int64     Any                Any                Any             ⋯
─────┼──────────────────────────────────────────────────────────────────────────
   1 │ 103            0  0.0                0.0                0.0             ⋯
   2 │ 103            1  0.0                0.0                0.668481
   3 │ 103            2  0.0                0.0                1.24185
   4 │ 103            3  0.0                0.0                0.514165
   5 │ 103            4  0.0                0.0                0.514165        ⋯
   6 │ 103            5  0.0                0.0                1.24199
   7 │ 103            6  0.87154            0.0                1.24199
   8 │ 103            7  1.5804             0.0                1.24199
  ⋮  │   ⋮        ⋮              ⋮                  ⋮                  ⋮       ⋱
 600 │ 149           94  -1.06667           3.29154            2.35757         ⋯
 601 │ 149           95  -1.06667           3.29154            2.21754
 602 │ 149           96  -1.06667           3.29154            2.21754
 603 │ 149           97  -1.06667           3.29154            2.21754
 604 │ 149           98  -1.06667           3.29154            2.05237         ⋯
 605 │ 149           99  -1.06667           3.35956            2.05237
 606 │ 149          100  0.82131            3.35956            2.05237
                                                  2 columns and 591 rows omitted
…
