Jumping Gaussian Estimation Task · ActionModels.jl
…
#Make the outcome into a Float64
JGET_data.outcome = Float64.(JGET_data.outcome)

show(JGET_data)

42480×10 DataFrame
   Row │ ID     session  trials  outcome  response  confidence  pdi_total  Age ⋯
       │ Int64  Int64    Int64   Float64  Float64   Float64?    Float64    Flo ⋯
───────┼────────────────────────────────────────────────────────────────────────
     1 │    20        1       1     62.0      15.0   0.0953106  0.0535714      ⋯
     2 │    20        1       2     55.0      57.0   0.0680593  0.0535714
     3 │    20        1       3     52.0      62.0   0.934176   0.0535714
     4 │    20        1       4     50.0      55.0   1.40098    0.0535714
     5 │    20        1       5     65.0      49.0   0.0674173  0.0535714      ⋯
     6 │    20        1       6     55.0      61.0   0.667615   0.0535714
     7 │    20        1       7     43.0      62.0   0.0677037  0.0535714
     8 │    20        1       8     59.0      38.0   0.0341998  0.0535714
   ⋮   │   ⋮       ⋮       ⋮        ⋮        ⋮          ⋮           ⋮          ⋱
 42474 │    74        4     234     23.0      18.0   0.600938   0.0863095      ⋯
 42475 │    74        4     235     17.0      26.0   0.934273   0.0863095
 42476 │    74        4     236     10.0      25.0   0.78428    0.0863095
 42477 │    74        4     237     16.0      18.0   0.600921   0.0863095
 42478 │    74        4     238     12.0      20.0   0.750922   0.0863095      ⋯
 42479 │    74        4     239     13.0      20.0   0.83429    0.0863095
 42480 │    74        4     240      8.0      23.0   0.734223   0.0863095
                                                3 columns and 42465 rows omitted
…
state_trajectories = get_state_trajectories!(model, :expected_value);

#TODO: plot the state trajectories
These can also be summarized in a dataframe, for downstream analysis.

states_df = summarize(state_trajectories, median)
show(states_df)

2892×4 DataFrame
  Row │ ID      session  timestep  expected_value
      │ String  String   Int64     Float64
──────┼───────────────────────────────────────────
    1 │ 20      1               0          0.0
    2 │ 20      1               1         20.8961
    3 │ 20      1               2         32.3903
    4 │ 20      1               3         38.9994
    5 │ 20      1               4         42.707
    6 │ 20      1               5         50.2205
    7 │ 20      1               6         51.8313
    8 │ 20      1               7         48.8549
  ⋮   │   ⋮        ⋮        ⋮            ⋮
 2886 │ 60      4             234         17.5568
 2887 │ 60      4             235         17.3366
 2888 │ 60      4             236         14.4352
 2889 │ 60      4             237         15.054
 2890 │ 60      4             238         13.8463
 2891 │ 60      4             239         13.5116
 2892 │ 60      4             240         11.3319
                                 2877 rows omitted
…
