Welcome to ActionModels! · ActionModels.jl
…
show(data)

36×4 DataFrame
 Row │ observations  actions  id      treatment
     │ Float64       Float64  String  String
─────┼──────────────────────────────────────────
   1 │          1.0      0.0  A       control
   2 │          1.0      0.2  A       control
   3 │          1.0      0.3  A       control
   4 │          2.0      0.4  A       control
   5 │          2.0      0.5  A       control
   6 │          2.0      0.6  A       control
   7 │          1.0      0.0  B       control
   8 │          1.0      0.5  B       control
  ⋮  │      ⋮           ⋮       ⋮         ⋮
  30 │          2.0      1.1  B       treatment
  31 │          1.0      0.0  C       treatment
  32 │          1.0      2.0  C       treatment
  33 │          1.0      0.5  C       treatment
  34 │          2.0      4.0  C       treatment
  35 │          2.0      5.0  C       treatment
  36 │          2.0      3.0  C       treatment
                                 21 rows omitted
…
#Extract the estimated trajectory of V
state_trajectories = get_state_trajectories!(model, :expected_value)
#Summarize the trajectories
summarized_trajectories = summarize(state_trajectories, median)

show(summarized_trajectories)
#TODO: plot

42×4 DataFrame
 Row │ id      treatment  timestep  expected_value
     │ String  String     Int64     Float64?
─────┼─────────────────────────────────────────────
   1 │ A       control           0       0.0
   2 │ A       control           1       0.0833657
   3 │ A       control           2       0.159781
   4 │ A       control           3       0.229827
   5 │ A       control           4       0.377399
   6 │ A       control           5       0.512668
   7 │ A       control           6       0.63666
   8 │ B       control           0       0.0
  ⋮  │   ⋮         ⋮         ⋮            ⋮
  36 │ C       treatment         0       0.0
  37 │ C       treatment         1       0.694989
  38 │ C       treatment         2       0.906969
  39 │ C       treatment         3       0.971624
  40 │ C       treatment         4       1.68633
  41 │ C       treatment         5       1.90433
  42 │ C       treatment         6       1.97082
                                    27 rows omitted
…
