Fitting action models to data · ActionModels.jl
…
show(data)

36×4 DataFrame
 Row │ observations  actions  id      treatment
     │ Float64       Float64  String  String
─────┼──────────────────────────────────────────
   1 │          1.0      0.0  A       control
   2 │          1.0      0.2  A       control
   3 │          1.0      0.3  A       control
   4 │          2.0      0.4  A       control
   5 │          2.0      0.5  A       control
   6 │          2.0      0.6  A       control
   7 │          1.0      0.0  B       control
   8 │          1.0      0.5  B       control
  ⋮  │      ⋮           ⋮       ⋮         ⋮
  30 │          2.0      1.1  B       treatment
  31 │          1.0      0.0  C       treatment
  32 │          1.0      2.0  C       treatment
  33 │          1.0      0.5  C       treatment
  34 │          2.0      4.0  C       treatment
  35 │          2.0      5.0  C       treatment
  36 │          2.0      3.0  C       treatment
                                 21 rows omitted
…
expected_value_singlesession = getfield(state_trajectories.value.expected_value, Symbol("id:A.treatment:control"));
Again, we can visualize, summarize or analyze the samples in whichever way we prefer. Here, we chose the second timestep of the first session, and calculate the mean and plot the distribution.

mean(expected_value_singlesession[timestep=2])
density(expected_value_singlesession[timestep=2], title = "Expectation at time 2 session A control condition")
<?xml version="1.0" encoding="utf-8"?>

This can also be summarized neatly in a DataFrame:

median_df = summarize(state_trajectories, median)

show(median_df)
#And from here, it can be used for plotting or further analysis as desired by the user.

42×4 DataFrame
 Row │ id      treatment  timestep  expected_value
     │ String  String     Int64     Float64
─────┼─────────────────────────────────────────────
   1 │ A       control           0       0.0
   2 │ A       control           1       0.0834229
   3 │ A       control           2       0.159886
   4 │ A       control           3       0.229971
   5 │ A       control           4       0.377632
   6 │ A       control           5       0.512975
   7 │ A       control           6       0.637027
   8 │ B       control           0       0.0
  ⋮  │   ⋮         ⋮         ⋮            ⋮
  36 │ C       treatment         0       0.0
  37 │ C       treatment         1       0.718137
  38 │ C       treatment         2       0.920553
  39 │ C       treatment         3       0.977607
  40 │ C       treatment         4       1.71183
  41 │ C       treatment         5       1.91877
  42 │ C       treatment         6       1.97711
                                    27 rows omitted
…
