The PVL-Delta · ActionModels.jl
…
#Make column with total reward
data[!, :reward] = Float64.(data[!, :gain] + data[!, :loss])

#Make column with subject ID as string
data[!, :subjID] = string.(data[!, :subjID])

#Select the three first subjects
data = filter(row -> row[:subjID] in ["103", "104", "337"], data)

show(data)

200×7 DataFrame
 Row │ trial  deck   gain   loss   subjID  clinical_group  reward
     │ Int64  Int64  Int64  Int64  String  String          Float64
─────┼─────────────────────────────────────────────────────────────
   1 │     1      3     50      0  103     control            50.0
   2 │     2      3     60      0  103     control            60.0
   3 │     3      3     40    -50  103     control           -10.0
   4 │     4      4     50      0  103     control            50.0
   5 │     5      3     55      0  103     control            55.0
   6 │     6      1    100      0  103     control           100.0
   7 │     7      1    120      0  103     control           120.0
   8 │     8      2    100      0  103     control           100.0
  ⋮  │   ⋮      ⋮      ⋮      ⋮      ⋮           ⋮            ⋮
 194 │    94      2    120      0  104     control           120.0
 195 │    95      4     80      0  104     control            80.0
 196 │    96      2    120      0  104     control           120.0
 197 │    97      4     40      0  104     control            40.0
 198 │    98      2    140      0  104     control           140.0
 199 │    99      4     80      0  104     control            80.0
 200 │   100      2    110      0  104     control           110.0
                                                   185 rows omitted
…
