Fitting action models to data · ActionModels.jl
…
show(data)

36×4 DataFrame
 Row │ observations  actions  id      treatment
     │ Float64       Float64  String  String
─────┼──────────────────────────────────────────
   1 │          1.0      0.0  A       control
   2 │          1.0      0.2  A       control
   3 │          1.0      0.3  A       control
   4 │          2.0      0.4  A       control
   5 │          2.0      0.5  A       control
   6 │          2.0      0.6  A       control
   7 │          1.0      0.0  B       control
   8 │          1.0      0.5  B       control
  ⋮  │      ⋮           ⋮       ⋮         ⋮
  30 │          2.0      1.1  B       treatment
  31 │          1.0      0.0  C       treatment
  32 │          1.0      2.0  C       treatment
  33 │          1.0      0.5  C       treatment
  34 │          2.0      4.0  C       treatment
  35 │          2.0      5.0  C       treatment
  36 │          2.0      3.0  C       treatment
                                 21 rows omitted
…
expected_value_singlesession = getfield(state_trajectories.value.expected_value, Symbol("id:A.treatment:control"));
Again, we can visualize, summarize or analyze the samples in whichever way we prefer. Here, we chose the second timestep of the first session, and calculate the mean and plot the distribution.

mean(expected_value_singlesession[timestep=2])
density(expected_value_singlesession[timestep=2], title = "Expectation at time 2 session A control condition")
<?xml version="1.0" encoding="utf-8"?>

This can also be summarized neatly in a DataFrame:

median_df = summarize(state_trajectories, median)

show(median_df)
#And from here, it can be used for plotting or further analysis as desired by the user.

42×4 DataFrame
 Row │ id      treatment  timestep  expected_value
     │ String  String     Int64     Float64
─────┼─────────────────────────────────────────────
   1 │ A       control           0        0.0
   2 │ A       control           1        0.083379
   3 │ A       control           2        0.159806
   4 │ A       control           3        0.22986
   5 │ A       control           4        0.377453
   6 │ A       control           5        0.512739
   7 │ A       control           6        0.636745
   8 │ B       control           0        0.0
  ⋮  │   ⋮         ⋮         ⋮            ⋮
  36 │ C       treatment         0        0.0
  37 │ C       treatment         1        0.712914
  38 │ C       treatment         2        0.917581
  39 │ C       treatment         3        0.976339
  40 │ C       treatment         4        1.70612
  41 │ C       treatment         5        1.91563
  42 │ C       treatment         6        1.97578
                                    27 rows omitted
…
