Population models · ActionModels.jl
…
show(data)

36×4 DataFrame
 Row │ observations  actions  id      treatment
     │ Float64       Float64  String  String
─────┼──────────────────────────────────────────
   1 │          1.0      0.0  A       control
   2 │          1.0      0.2  A       control
   3 │          1.0      0.3  A       control
   4 │          2.0      0.4  A       control
   5 │          2.0      0.5  A       control
   6 │          2.0      0.6  A       control
   7 │          1.0      0.0  B       control
   8 │          1.0      0.5  B       control
  ⋮  │      ⋮           ⋮       ⋮         ⋮
  30 │          2.0      1.1  B       treatment
  31 │          1.0      0.0  C       treatment
  32 │          1.0      2.0  C       treatment
  33 │          1.0      0.5  C       treatment
  34 │          2.0      4.0  C       treatment
  35 │          2.0      5.0  C       treatment
  36 │          2.0      3.0  C       treatment
                                 21 rows omitted
…
